iit-1c.txt c 1.0 a 1.0 a 0.0 b 1.0 e 1.0 a 1.0 c 1.0 c 1.0 c 1.0 c 0.0 
iit-3b.txt e 1.0 d 1.0 b 1.0 a 1.0 b 1.0 d 1.0 c 1.0 a 1.0 b 1.0 c 1.0 
iit-4c.txt c 1.0 b 1.0 e 1.0 c 1.0 d 1.0 d 1.0 c 1.0 e 1.0 c 1.0 a 1.0 e 1.0 
iit-5a.txt a 1.0 c 1.0 d 1.0 b 1.0 c 1.0 a 1.0 a 1.0 d 0.2 b 0.2 c 1.0 
iit-6c.txt d 0.2 c 1.0 d 1.0 b 0.2 a 0.2 a 0.2 e 1.0 b 0.2 c 1.0 b 0.2 
iit-10aa.txt e 1.0 d 1.0 b 1.0 c 1.0 b 1.0 a 1.0 
iit-10ab.txt e 1.0 b 1.0 d 0.5 b 1.0 a 1.0 d 1.0 
iit-10ac.txt b 1.0 a 1.0 b 1.0 e 1.0 a 1.0 b 1.0 
iit-10ad.txt b 1.0 b 1.0 c 1.0 e 1.0 b 1.0 a 1.0 
iit-10ad'.txt e 1.0 b 0.0 b 0.0 c 0.0 e 0.0 b 0.0 a 1.0 c 1.0 a 0.0 a 1.0 
iit-10ba.txt d 1.0 e 1.0 c 1.0 a 1.0 d 1.0 c 1.0 c 0.0 
iit-10bb.txt d 1.0 b 1.0 a 1.0 e 1.0 a 1.0 c 1.0 c 1.0 
iit-10bc.txt c 1.0 a 1.0 b 1.0 c 1.0 d 1.0 c 1.0 e 1.0 
iit-10bd.txt e 1.0 b 1.0 a 1.0 c 1.0 a 1.0 a 1.0 
iit-10bd'.txt e 0.0 b 1.0 b 1.0 c 1.0 e 1.0 b 1.0 a 0.0 c 0.0 a 1.0 a 0.0 
iit-20aa.txt e 1.0 a 1.0 d 1.0 e 1.0 a 1.0 c 1.0 b 1.0 
iit-20aa'.txt e 1.0 a 1.0 d 1.0 e 1.0 a 1.0 c 1.0 b 1.0 e 0.0 c 0.0 d 0.0 a 0.0 
iit-20ac.txt d 1.0 e 1.0 c 1.0 c 1.0 b 1.0 b 1.0 b 1.0 
iit-20ad.txt d 1.0 d 1.0 b 1.0 c 1.0 c 1.0 a 1.0 b 1.0 
iit-20ae.txt e 1.0 b 1.0 c 1.0 c 1.0 b 1.0 d 1.0 e 1.0 
iit-20bc.txt a 1.0 b 1.0 a 1.0 d 1.0 c 1.0 c 1.0 
iit-20be.txt e 1.0 b 1.0 c 1.0 c 1.0 b 1.0 d 1.0 e 1.0 
iit-30aa.txt b 1.0 a 1.0 e 1.0 e 1.0 b 1.0 a 1.0 d 1.0 c 1.0 c 1.0 
iit-30ab.txt d 1.0 a 1.0 d 1.0 c 1.0 a 1.0 c 1.0 
iit-30ac.txt a 1.0 e 1.0 e 1.0 d 1.0 c 1.0 d 1.0 b 1.0 c 1.0 
iit-30ad.txt c 1.0 d 1.0 c 1.0 a 1.0 d 1.0 b 1.0 c 1.0 
iit-30bb.txt b 1.0 c 1.0 d 1.0 a 1.0 c 1.0 
iit-30bd.txt b 1.0 d 1.0 c 1.0 a 1.0 c 1.0 
iit-40aa.txt c 1.0 b 1.0 e 1.0 c 1.0 a 1.0 a 1.0 d 1.0 e 1.0 
iit-40ab.txt c 1.0 d 1.0 a 1.0 e 1.0 b 1.0 e 1.0 c 1.0 
iit-40ac.txt b 1.0 c 1.0 a 1.0 e 1.0 a 1.0 d 1.0 
iit-40ad.txt c 1.0 e 1.0 d 1.0 a 1.0 e 1.0 c 1.0 
iit-50aa.txt a 1.0 c 1.0 b 1.0 c 1.0 b 1.0 c 1.0 b 1.0 
iit-50ab.txt c 1.0 a 1.0 d 1.0 c 1.0 b 1.0 c 1.0 c 0.3 
iit-50ad.txt a 1.0 b 1.0 c 1.0 d 1.0 e 1.0 d 1.0 
iit-60ac.txt c 1.0 d 1.0 e 1.0 b 1.0 c 1.0 d 1.0 a 1.0 
iit-flua.txt d 1.0 a 1.0 d 1.0 d 1.0 b 1.0 d 1.0 b 1.0 b 1.0 a 1.0 a 1.0 b 1.0 b 1.0 d 1.0 b 1.0 b 1.0 b 1.0 e 1.0 b 1.0 d 1.0 x 0.0 x 0.0 x 0.0 x 0.0 
iit-flub.txt a 1.0 a 1.0 d 1.0 d 1.0 e 1.0 b 1.0 b 1.0 a 1.0 c 1.0 c 1.0 b 1.0 b 1.0 c 1.0 b 1.0 c 1.0 c 1.0 c 1.0 d 1.0 e 1.0 x 0.0 x 0.0 x 0.0 x 0.0 
iit-ib.txt d 0.2 e 1.0 e 1.0 e 1.0 d 1.0 c 1.0 c 0.2 c 1.0 a 1.0 b 1.0 
iit-ic.txt b 1.0 d 1.0 a 0.2 b 1.0 c 1.0 c 1.0 d 1.0 e 0.0 c 1.0 c 0.2 c 1.0 
iit-ic'.txt b 1.0 d 1.0 a 0.2 b 1.0 c 1.0 c 1.0 d 1.0 c 1.0 c 1.0 c 1.0 c 0.0 
